%YAML 1.1
%TAG !u! tag:unity3d.com,2011:
--- !u!21 &2100000
Material:
  serializedVersion: 6
  m_ObjectHideFlags: 0
  m_PrefabParentObject: {fileID: 0}
  m_PrefabInternal: {fileID: 0}
  m_Name: monster1B
  m_Shader: {fileID: 4800000, guid: 8b18f6948c4ddec41bf355ab3a51b596, type: 3}
  m_ShaderKeywords: 
  m_LightmapFlags: 5
  m_CustomRenderQueue: 2000
  stringTagMap: {}
  m_SavedProperties:
    serializedVersion: 2
    m_TexEnvs:
      data:
        first:
          name: _MainTex
        second:
          m_Texture: {fileID: 0}
          m_Scale: {x: 1, y: 1}
          m_Offset: {x: 0, y: 0}
      data:
        first:
          name: _diffusemap
        second:
          m_Texture: {fileID: 2800000, guid: 4fb7c9a0739228a47b927ce9620195aa, type: 3}
          m_Scale: {x: 1, y: 1}
          m_Offset: {x: 0, y: 0}
      data:
        first:
          name: _normalmap
        second:
          m_Texture: {fileID: 2800000, guid: 4b63f2fcdb75a4a4b98dcb86094b10c1, type: 3}
          m_Scale: {x: 1, y: 1}
          m_Offset: {x: 0, y: 0}
      data:
        first:
          name: _specmap
        second:
          m_Texture: {fileID: 2800000, guid: d174576ff2407cc4790a624cd1182fce, type: 3}
          m_Scale: {x: 1, y: 1}
          m_Offset: {x: 0, y: 0}
      data:
        first:
          name: _illumMask
        second:
          m_Texture: {fileID: 2800000, guid: d8caf98b541aeba4896922ea31eb73d6, type: 3}
          m_Scale: {x: 1, y: 1}
          m_Offset: {x: 0, y: 0}
    m_Floats:
      data:
        first:
          name: _gloss
        second: 0.08928571
    m_Colors:
      data:
        first:
          name: _Color
        second: {r: 1, g: 1, b: 1, a: 1}
      data:
        first:
          name: _subcolor
        second: {r: 0.8897059, g: 0.77357495, b: 0.12429716, a: 1}
      data:
        first:
          name: _illumColor
        second: {r: 0.24540442, g: 0.6544118, b: 0.5190164, a: 1}
